<svg width="907" height="325" viewBox="0 0 907 325" fill="none" xmlns="http://www.w3.org/2000/svg">
<rect width="905" height="325" rx="20" fill="#02553E"/>
<mask id="mask0_85_435" style="mask-type:alpha" maskUnits="userSpaceOnUse" x="1" y="0" width="906" height="324">
<path d="M1.55664 20C1.55664 8.95431 10.5109 0 21.5566 0H454.128H886.7C897.745 0 906.7 8.95431 906.7 20V304C906.7 315.046 897.745 324 886.7 324H21.5567C10.511 324 1.55664 315.046 1.55664 304V20Z" fill="#02553E"/>
</mask>
<g mask="url(#mask0_85_435)">
<path d="M625.248 385.545C625.248 462.724 562.681 525.29 485.502 525.29C408.323 525.29 345.757 462.724 345.757 385.545C345.757 308.366 408.323 245.8 485.502 245.8C562.681 245.8 625.248 308.366 625.248 385.545Z" stroke="url(#paint0_radial_85_435)" stroke-width="2"/>
<path d="M808.217 244.595C808.217 272.026 785.979 294.263 758.548 294.263C731.117 294.263 708.88 272.026 708.88 244.595C708.88 217.164 731.117 194.927 758.548 194.927C785.979 194.927 808.217 217.164 808.217 244.595Z" stroke="#176264" stroke-width="2"/>
<path d="M585.839 401.028C585.839 455.665 541.547 499.957 486.91 499.957C432.273 499.957 387.98 455.665 387.98 401.028C387.98 346.391 432.273 302.099 486.91 302.099C541.547 302.099 585.839 346.391 585.839 401.028Z" stroke="url(#paint1_radial_85_435)" stroke-width="2"/>
<path d="M599.913 388.36C599.913 451.548 548.69 502.772 485.502 502.772C422.314 502.772 371.091 451.548 371.091 388.36C371.091 325.173 422.314 273.949 485.502 273.949C548.69 273.949 599.913 325.173 599.913 388.36Z" stroke="url(#paint2_radial_85_435)" stroke-width="2"/>
<g opacity="0.314081" filter="url(#filter0_f_85_435)">
<path fill-rule="evenodd" clip-rule="evenodd" d="M760.243 292.572C776.559 292.572 789.786 277.938 789.786 259.886C789.786 241.834 776.559 227.2 760.243 227.2C743.927 227.2 730.7 241.834 730.7 259.886C730.7 277.938 743.927 292.572 760.243 292.572Z" fill="#09202C" fill-opacity="0.406141"/>
</g>
<path fill-rule="evenodd" clip-rule="evenodd" d="M758.986 274.971C775.996 274.971 789.786 261.181 789.786 244.171C789.786 227.161 775.996 213.371 758.986 213.371C741.975 213.371 728.186 227.161 728.186 244.171C728.186 261.181 741.975 274.971 758.986 274.971Z" fill="url(#paint3_linear_85_435)"/>
<path d="M762.71 137.143C770.028 130.543 776.449 122.698 781.637 113.697C808.244 67.5313 792.344 8.43623 746.123 -18.2959C699.902 -45.028 640.864 -29.2743 614.257 16.8911C609.063 25.9031 605.488 35.4079 603.443 45.0684" stroke="url(#paint4_linear_85_435)" stroke-width="55"/>
<path d="M423.506 -59.6573C415.225 -52.122 407.959 -43.1644 402.089 -32.8867C371.98 19.8244 389.972 87.2986 442.275 117.821C494.577 148.344 561.384 130.356 591.492 77.6449C597.37 67.3551 601.414 56.5026 603.729 45.4723" stroke="url(#paint5_linear_85_435)" stroke-width="55"/>
<path d="M862.701 264.784C860.593 275.557 856.779 286.188 851.152 296.306C822.292 348.197 756.668 366.933 704.578 338.155C652.487 309.377 633.654 243.982 662.514 192.092C668.148 181.962 675.183 173.096 683.244 165.6" stroke="url(#paint6_linear_85_435)" stroke-width="55"/>
</g>
<defs>
<filter id="filter0_f_85_435" x="708.954" y="205.454" width="102.578" height="108.864" filterUnits="userSpaceOnUse" color-interpolation-filters="sRGB">
<feFlood flood-opacity="0" result="BackgroundImageFix"/>
<feBlend mode="normal" in="SourceGraphic" in2="BackgroundImageFix" result="shape"/>
<feGaussianBlur stdDeviation="10.8731" result="effect1_foregroundBlur_85_435"/>
</filter>
<radialGradient id="paint0_radial_85_435" cx="0" cy="0" r="1" gradientUnits="userSpaceOnUse" gradientTransform="translate(485.502 244.8) rotate(90) scale(161.329 92.9612)">
<stop stop-color="#8DCEA1"/>
<stop offset="1" stop-color="#B7EAC7"/>
</radialGradient>
<radialGradient id="paint1_radial_85_435" cx="0" cy="0" r="1" gradientUnits="userSpaceOnUse" gradientTransform="translate(486.91 301.099) rotate(90) scale(114.544 66.0024)">
<stop stop-color="#8DCEA1"/>
<stop offset="1" stop-color="#B7EAC7"/>
</radialGradient>
<radialGradient id="paint2_radial_85_435" cx="0" cy="0" r="1" gradientUnits="userSpaceOnUse" gradientTransform="translate(485.502 272.949) rotate(90) scale(132.29 76.2282)">
<stop stop-color="#8DCEA1"/>
<stop offset="1" stop-color="#B7EAC7"/>
</radialGradient>
<linearGradient id="paint3_linear_85_435" x1="728.186" y1="213.371" x2="728.186" y2="274.971" gradientUnits="userSpaceOnUse">
<stop stop-color="#38AA8A"/>
<stop offset="1" stop-color="#01B583"/>
</linearGradient>
<linearGradient id="paint4_linear_85_435" x1="827.874" y1="88.6997" x2="808.513" y2="23.0835" gradientUnits="userSpaceOnUse">
<stop stop-color="#00B583"/>
<stop offset="1" stop-color="#37AA8A"/>
</linearGradient>
<linearGradient id="paint5_linear_85_435" x1="198.036" y1="115.146" x2="579.629" y2="268.674" gradientUnits="userSpaceOnUse">
<stop stop-color="white"/>
<stop offset="1" stop-color="white" stop-opacity="0.01"/>
</linearGradient>
<linearGradient id="paint6_linear_85_435" x1="899.995" y1="298.153" x2="878.835" y2="225.537" gradientUnits="userSpaceOnUse">
<stop stop-color="#00B583"/>
<stop offset="1" stop-color="#37AA8A"/>
</linearGradient>
</defs>
</svg>
