<svg width="30" height="19" viewBox="0 0 30 19" fill="none" xmlns="http://www.w3.org/2000/svg">
<path d="M29.9999 18.5105C28.5238 18.5105 27.0478 18.5105 25.5318 18.5105C25.4121 18.1514 25.3323 17.7924 25.2127 17.4334C24.8536 16.2765 24.5345 15.1594 24.1754 14.0025C24.1355 13.8031 24.0558 13.7233 23.8164 13.7233C22.2207 13.7233 20.6648 13.7233 19.0691 13.7233C18.8297 13.7233 18.7898 13.8031 18.7101 14.0025C18.351 15.3988 17.9521 16.7951 17.5532 18.1913C17.5133 18.3908 17.4335 18.4706 17.1941 18.4706C15.9175 18.4706 14.6808 18.4706 13.4043 18.4706C13.3245 18.4706 13.2447 18.4706 13.125 18.4706C15 12.2871 16.875 6.18346 18.75 0C19.5478 0 20.3058 0 21.0638 0C22.0212 0 22.9786 0 23.9361 0C24.1355 0 24.2552 0.0797914 24.2951 0.279258C26.1302 6.22336 27.9653 12.1276 29.8004 18.0717C29.8403 18.1514 29.8802 18.2711 29.9201 18.3509C29.9999 18.4307 29.9999 18.4706 29.9999 18.5105ZM21.3829 3.23136C20.7446 5.66485 20.1063 8.13823 19.4281 10.6116C20.7845 10.6116 22.101 10.6116 23.4574 10.6116C22.7792 8.13823 22.0611 5.66485 21.3829 3.23136Z" fill="white"/>
<path d="M12.1677 18.4703C10.931 18.4703 9.73421 18.4703 8.45763 18.4703C8.37784 18.0315 8.29805 17.5926 8.17837 17.074C8.05869 17.1937 7.97891 17.2735 7.89912 17.3533C6.34328 18.9889 3.35129 19.2283 1.59598 17.9118C0.239612 16.8746 -0.199214 15.4384 0.0800388 13.7629C0.359292 12.1672 1.35662 11.09 2.79278 10.4518C4.18905 9.81346 5.6651 9.61399 7.18104 9.57409C7.38051 9.57409 7.57998 9.57409 7.77944 9.57409C7.77944 9.57409 7.81933 9.5741 7.81933 9.5342C7.93901 8.69645 7.4204 7.97836 6.50286 7.7789C5.0667 7.45975 3.71033 7.7789 2.35396 8.33741C2.15449 8.41719 1.95502 8.53687 1.71566 8.65655C1.67577 8.53687 1.63588 8.41719 1.59598 8.33741C1.39652 7.65922 1.19705 6.94114 0.997584 6.26296C0.917797 6.06349 0.957691 5.9837 1.15716 5.86402C2.03481 5.4252 2.99225 5.14594 3.98958 4.98637C5.38584 4.74701 6.74222 4.70712 8.13848 5.02626C10.1331 5.46509 11.5693 6.90124 11.8885 8.97569C11.9682 9.57409 12.048 10.2124 12.048 10.8507C12.0879 12.6858 12.048 14.5209 12.0879 16.3161C12.0879 17.0341 12.1278 17.7522 12.1677 18.4703ZM7.97891 12.1672C7.22094 12.1273 6.46296 12.1672 5.74488 12.4464C5.34595 12.5661 4.90712 12.8055 4.62787 13.0847C3.83001 13.8028 4.02947 15.2389 4.90712 15.6778C6.14382 16.3161 7.85923 15.4384 7.97891 14.0421C8.0188 13.4437 7.97891 12.8453 7.97891 12.1672Z" fill="white"/>
<path d="M2.11426 2.55332C2.11426 2.11449 2.11426 1.75545 2.11426 1.35652C4.2286 1.35652 6.30305 1.35652 8.4174 1.35652C8.4174 0.917692 8.4174 0.518758 8.4174 0.0400391C9.97323 0.678332 11.5291 1.31663 13.0849 1.95492C11.5291 2.59321 9.97323 3.2315 8.4174 3.8698C8.4174 3.43097 8.4174 2.99214 8.4174 2.55332C6.34295 2.55332 4.2286 2.55332 2.11426 2.55332Z" fill="white"/>
</svg>
