<svg width="38" height="38" viewBox="0 0 38 38" fill="none" xmlns="http://www.w3.org/2000/svg">
<rect x="0.5" y="0.5" width="37" height="37" rx="11.5" fill="white" stroke="white"/>
<circle cx="19.5" cy="10.5" r="2.5" fill="#717579"/>
<circle cx="19.5" cy="18.5" r="2.5" fill="#717579"/>
<circle cx="19.5" cy="26.5" r="2.5" fill="#717579"/>
</svg>
